acciddasuite • acciddasuite
…
ARIMA: Learns repeating patterns from past values to
predict future ones. Auto-configured to find the best fit.

fcast = get_fcast(
  df,
  eval_start_date = eval_start_date,
  top_n = 4, # Select top 4 models
  h = 4 # forecast 4 weeks ahead
) |>
  time_pipe("base fcast", log = "timing")

fcast
#> $hubcast
#> $hubcast$model_out_tbl
#> # A tibble: 400 × 9
#>    model_id reference_date target   horizon location target_end_date output_type
#>    <chr>    <date>         <chr>      <int> <chr>    <date>          <chr>      
#>  1 ARIMA    2025-12-06     wk inc …       1 NC       2025-12-13      quantile   
#>  2 ARIMA    2025-12-06     wk inc …       1 NC       2025-12-13      quantile   
#>  3 ARIMA    2025-12-06     wk inc …       1 NC       2025-12-13      quantile   
#>  4 ARIMA    2025-12-06     wk inc …       1 NC       2025-12-13      quantile   
#>  5 ARIMA    2025-12-06     wk inc …       1 NC       2025-12-13      quantile   
#>  6 ARIMA    2025-12-06     wk inc …       2 NC       2025-12-20      quantile   
#>  7 ARIMA    2025-12-06     wk inc …       2 NC       2025-12-20      quantile   
#>  8 ARIMA    2025-12-06     wk inc …       2 NC       2025-12-20      quantile   
#>  9 ARIMA    2025-12-06     wk inc …       2 NC       2025-12-20      quantile   
#> 10 ARIMA    2025-12-06     wk inc …       2 NC       2025-12-20      quantile   
#> # ℹ 390 more rows
#> # ℹ 2 more variables: output_type_id <chr>, value <dbl>
#> 
#> $hubcast$oracle_output
#> # A tibble: 282 × 6
#>    location target_end_date target       output_type output_type_id oracle_value
#>    <chr>    <date>          <chr>        <chr>       <lgl>                 <dbl>
#>  1 NC       2020-10-17      wk inc flu … quantile    NA                        0
#>  2 NC       2020-10-24      wk inc flu … quantile    NA                        7
#>  3 NC       2020-10-31      wk inc flu … quantile    NA                       12
#>  4 NC       2020-11-07      wk inc flu … quantile    NA                        8
#>  5 NC       2020-11-14      wk inc flu … quantile    NA                        8
#>  6 NC       2020-11-21      wk inc flu … quantile    NA                       18
#>  7 NC       2020-11-28      wk inc flu … quantile    NA                       19
#>  8 NC       2020-12-05      wk inc flu … quantile    NA                        9
#>  9 NC       2020-12-12      wk inc flu … quantile    NA                       11
#> 10 NC       2020-12-19      wk inc flu … quantile    NA                        8
#> # ℹ 272 more rows
…
